20200318005113_136b6052d13a5defc1c6306e9399b9e1	46826	FqgY8O8a3Waj3ewYwcui7Qmsl-vt	15844638739280269	image/jpeg	0	
20200320115735_2c6216dc9e564561ce5a3ed6719ba7a1	28210	FngQ3UIhhK81KJQOca1lt6TnPQ7T	15846766559318143	image/jpeg	0	
FmeCeF-Uc4TYr28e4Vxo6F4-EuMY	108674	FmeCeF-Uc4TYr28e4Vxo6F4-EuMY	15844343556631397	image/jpeg	0	
RsRsfoRr88eEFoOyzk8yz88ROoRou4e8.jpg	87673	Fhd9FEgBdt4X8kn7TJbm4yXJBnLc	15844489011268450	image/jpeg	0	
admin/20200317/8acc158666628fa3bfb6bd489a744525.png	38644	Fi2resqeo0Xe6GrjcsLUQCyLHewX	15844465275857529	image/png	0	
admin/20200317/cbde74d861dc4599bcdf60f12e6c3fa3.png	2521	FocAEUilVrPrkx_WHNxoQm79xXLq	15844461502855726	image/png	0	
admin/20200317/d2513944d7b6204ad281960e1460bdd9.png	355908	FsHVMIYeQzRxHjZKTHv7bVJDls74	15844468277403243	image/png	0	
admin/20200319/734d09eafc23b749e24ed8bfd6156178.jpg	229816	Fsal6g338GBkxvneMlmmwY-zxGup	15845824113454930	image/jpeg	0	
admin/20200319/93091676d9893a976d3b6854d57f3044.jpg	10936	FifUJOjS1Xa9CFt4YjxK4uugxJyJ	15845828100883946	image/jpeg	0	
admin/20200319/c9c728ac4b910b2c729de63a48347bf3.jpg	113010	FghqiRCu-3tiCw1BWzedHnoNg2rU	15845826868460927	image/jpeg	0	
admin/20200319/eaa842d674aca45eec9d404a3c30aa5a.jpg	10936	FifUJOjS1Xa9CFt4YjxK4uugxJyJ	15845827159505021	image/jpeg	0	
android_37104_20200317_195215_9704755.jpg	882322	Fnv-i9gNvj0hX9Qk6BN9YsrBdhiF	15844459368857385	image/jpeg	0	
android_37104_20200317_223011_9595283.jpg	94867	FrW0lBWQDHU4J_-gpdU2rDheiedZ	15844554120869846	image/jpeg	0	
android_37106_20200317_192904_5959797.jpg	882322	Fnv-i9gNvj0hX9Qk6BN9YsrBdhiF	15844445456176747	image/jpeg	0	
android_37112_20200319_172302_7265026.mp4	8274028	lsbGMzTQGBxCZIU8OBDgs32wU0n0	15846098121695752	video/mp4	0	
android_37112_20200319_172302_7265026_c.jpg	48706	Fna5VmP0Xwa-bRzW4YLGHszRdLQh	15846098123360510	image/jpeg	0	
android_37114_20200320_115555_2712258.jpg	46179	Flmt5H5XZWiEpQqRV4zELpfg56uf	15846765554830769	image/jpeg	0	
android_37114_20200320_115634_5659885.jpg	55990	FqIhmbeaYNHB-QSGTZVt7IvOddZ9	15846765948548630	image/png	0	
android_37116_20200320_143916_4911899.jpg	4976	FvN5tVVKq-CeUqVQdnYYXxdzweno	15846863565858858	image/png	0	
default/20200317/1410e1b9342d943267b77fbfbf45e95d.jpg	4854	FoySzXWf4lO4rComaZRHT5ZqFQfu	15844524886903677	image/jpeg	0	
default/20200317/14e393549a3bfb8a3dda20fcd0ba73ef.jpg	5996	Fn-OPZZWL8LVYsL-UAkI4TKP7u1t	15844457535138805	image/jpeg	0	
default/20200317/2d01e85cd188238ead3cb354965283ae.jpg	5996	Fn-OPZZWL8LVYsL-UAkI4TKP7u1t	15844442371226371	image/jpeg	0	
default/20200317/34f2e06d01e77cef2b72173630587af2.jpg	5996	Fn-OPZZWL8LVYsL-UAkI4TKP7u1t	15844457905524048	image/jpeg	0	
default/20200317/45b6b82d02cfc30b95339a5d3760b1c5.jpg	5996	Fn-OPZZWL8LVYsL-UAkI4TKP7u1t	15844441856188416	image/jpeg	0	
default/20200317/48ad24879b33d34e09822e9b2ed8dd9e.jpg	1505521	FvmoDD1tfiX_aznmeQFVPVITmZg1	15844524766697600	image/jpeg	0	
default/20200317/5d4b6637f1a3aa71d136da6fb6c0c6e3.jpg	5996	Fn-OPZZWL8LVYsL-UAkI4TKP7u1t	15844442385298848	image/jpeg	0	
default/20200317/77bde4e2e0c803f3e506750a0a90c58a.jpg	5996	Fn-OPZZWL8LVYsL-UAkI4TKP7u1t	15844457520134917	image/jpeg	0	
default/20200317/8bad39ec13423c765af9aa5da159c043.jpg	4854	FoySzXWf4lO4rComaZRHT5ZqFQfu	15844524932560923	image/jpeg	0	
default/20200317/a9900c4c1821e87445347c0e4adf86ee.jpg	5996	Fn-OPZZWL8LVYsL-UAkI4TKP7u1t	15844457813229167	image/jpeg	0	
default/20200317/a9ee4081162fe931220b41ae966fe52d.jpg	4854	FoySzXWf4lO4rComaZRHT5ZqFQfu	15844524964204051	image/jpeg	0	
default/20200317/af4a4f30589019b63031126132b2e43e.jpg	5996	Fn-OPZZWL8LVYsL-UAkI4TKP7u1t	15844441859681150	image/jpeg	0	
default/20200317/b46e87a905e4b6e3cb713196bceab902.jpg	5996	Fn-OPZZWL8LVYsL-UAkI4TKP7u1t	15844457527208217	image/jpeg	0	
default/20200317/b6ac2089e8308cdb4ee38e2e16e1a0f6.jpg	5996	Fn-OPZZWL8LVYsL-UAkI4TKP7u1t	15844442401483659	image/jpeg	0	
default/20200317/cf0b32f366ee00c9f3452e57e41c9e9d.jpg	1051891	Fo09E_T7RRe4DQl5_25XS8LEr0Qk	15844457941908729	image/jpeg	0	
default/20200318/0ce19a56aada6e5a95de21751c8f62ea.jpg	822284	FrmDxlRwmYSsY3uK0yVmxVnWA2Bz	15845069851284666	image/jpeg	0	
default/20200318/0ea50446a4efa148fef2f61be9981c16.jpg	4854	FgKIdwpHeYfRhyu6IHn4COqtcgZ_	15845070767015325	image/jpeg	0	
default/20200318/1a3c3f159ee78f4c87f6f143e2cd9bed.jpg	822284	FrmDxlRwmYSsY3uK0yVmxVnWA2Bz	15845069689216014	image/jpeg	0	
default/20200318/40b1ccb6a2f7a10317fdfeeda17e5aee.jpg	18010	FlybePxwUPkd7z4Ob-bU8GZQDlEi	15845070635174130	image/jpeg	0	
default/20200318/a77a013458daf06ebc1132fcddc2ee84.jpg	4854	FgKIdwpHeYfRhyu6IHn4COqtcgZ_	15845070795550179	image/jpeg	0	
default/20200318/b4f5a5b47065c340f0a8b192e5b1a5cb.jpg	4854	FgKIdwpHeYfRhyu6IHn4COqtcgZ_	15845070741746294	image/jpeg	0	
default/20200319/255744a9d7ba5a1bbf3ce30cf00ba830.mp3	2050236	FkW7LUzvcibIYvjK1OyxbdXMT5vD	15845828277129019	audio/mpeg	0	
default/20200320/24a1c1cf05557ba047ad626f0c5a6fef.jpg	46179	Flmt5H5XZWiEpQqRV4zELpfg56uf	15846764773963094	image/jpeg	0	
default/20200320/26c28048db70912dad5497a6a7d8fb06.jpeg	3354855	Fuw9weNeCyFXmD7HEGgfIPtsJ00W	15846770517063289	image/jpeg	0	
default/20200320/27be8111c912a2f2d1a7d4ccf13ba342.png	4976	FvN5tVVKq-CeUqVQdnYYXxdzweno	15846861054929523	image/png	0	
default/20200320/348fe8f1b7720c805827cf5cd5b46f1c.jpeg	3354855	Fuw9weNeCyFXmD7HEGgfIPtsJ00W	15846773744151452	image/jpeg	0	
default/20200320/4bfd5dcc32951ed9a066d5f565462cc2.png	4976	FvN5tVVKq-CeUqVQdnYYXxdzweno	15846861094020918	image/png	0	
default/20200320/646929f8a8288d4368c2d71cb132c215.jpg	46179	Flmt5H5XZWiEpQqRV4zELpfg56uf	15846764650951239	image/jpeg	0	
default/20200320/66d4137dd14ca6094b8b4972e23c8b1d.jpg	46179	Flmt5H5XZWiEpQqRV4zELpfg56uf	15846764827110905	image/jpeg	0	
default/20200320/7486375984760550221190699b785db5.jpeg	3354855	Fuw9weNeCyFXmD7HEGgfIPtsJ00W	15846770421512823	image/jpeg	0	
default/20200320/750dd8dd264d37820a77ab277f4c77b6.png	4976	FvN5tVVKq-CeUqVQdnYYXxdzweno	15846860824751697	image/png	0	
default/20200320/8c2a5aef6c315f2d67b73d751b45bd62.jpeg	3354855	Fuw9weNeCyFXmD7HEGgfIPtsJ00W	15846770439396793	image/jpeg	0	
default/20200320/99e23916f1eba961f5e43d25d424b61b.png	4976	FvN5tVVKq-CeUqVQdnYYXxdzweno	15846865509464090	image/png	0	
default/20200320/b57d67c8db8002cc857cc6cf8aab7a86.png	4976	FvN5tVVKq-CeUqVQdnYYXxdzweno	15846865476735805	image/png	0	
default/20200320/b6215481d1054199fae497ebff399330.jpeg	3354855	Fuw9weNeCyFXmD7HEGgfIPtsJ00W	15846770268162177	image/jpeg	0	
default/20200320/cb9942574f1d2b1b66388a16ef9f2ba5.png	4976	FvN5tVVKq-CeUqVQdnYYXxdzweno	15846865562207664	image/png	0	
default/20200320/eda19be3d7a2facb48c09855f6993341.jpg	46179	Flmt5H5XZWiEpQqRV4zELpfg56uf	15846764879179305	image/jpeg	0	
face_036.png	22200	FgYtvdOEZgn6WXZxXwjUmss2r_46	15844289667371303	image/png	0	
face_037.png	8722	Fp0OKjekLBSHpvMH4UxwQJQyxNlZ	15844289664945539	image/png	0	
face_039.png	12814	FgODWzY50OEiAujPuvwJM-5NJmXt	15844289667998796	image/png	0	
face_041.png	44307	FkBL26v_hE21JaPglC5rIaMt9s0o	15844289666388810	image/png	0	
face_043.png	33628	Fsgq884h92NvcABKfaurmZD9w1HE	15844289667187222	image/png	0	
gift_1.png	79342	Flas--32tTep9wEdiPccggmqa2cq	15844273498626021	image/png	0	
gift_10.png	66355	Fr0FY5-t_NpThKCoqbgQYsWEhf7L	15844273503199218	image/png	0	
gift_11.png	66465	FospNTcM9idJbrwkQv-ahbdOnTfW	15844273498212035	image/png	0	
gift_12.png	70853	FgDrRpZxKTgJcWsU_GCHodoDF6Hx	15844273496385525	image/png	0	
gift_13.png	66581	Fu-wmYFf7We8hlXkL1jzuZ7bBV7C	15844273493999242	image/png	0	
gift_14.png	60789	FqclCOHaxLxMDHgX55AuMEBvIaz6	15844273495871446	image/png	0	
gift_15.png	43909	FjE282GaYX1Fy02rC4iHOfJDuZ_f	15844273495338071	image/png	0	
gift_16.png	64829	FqgZpRvEA_f4wQjjiuhP7JvOeys3	15844273503336042	image/png	0	
gift_17.png	50435	Fl8HuwDQFssaBFlwUyJs6_DVDcDn	15844273498475205	image/png	0	
gift_18.png	82211	FiRaft9qAerz6mSyHwUAy-ldkEoh	15844273503185424	image/png	0	
gift_19.png	50354	FrXIOccFitMUAuaclrjwqUgfxtE2	15844273495349336	image/png	0	
gift_2.png	57106	Fq6Pzon6lSvDqr8VaH_GjIr_gj0O	15844273502745794	image/png	0	
gift_20.png	49891	FnUn7WwyKKnejGHMg8YMkxBCBUTI	15844273665111516	image/png	0	
gift_21.png	49322	FgscS17iHGOga7473bB598islGts	15844273494369582	image/png	0	
gift_22.png	71738	Fk5-t9oGeClmakWsmJkzaCm2eZP5	15844274617344901	image/png	0	
gift_23.png	69900	FjM7LLAZcIPB4qmvTPKtwGuJy8CY	15844274617179407	image/png	0	
gift_24.png	66089	Flh0eF9jHoY3-grUwRoNSKxdAsF-	15844273677969612	image/png	0	
gift_25.png	74400	FgfM015rOMuGToWdjK2hI6nVIsdD	15844273501569130	image/png	0	
gift_26.png	42915	FoI6kfIyRoLqd6gySEdL-_zxeRca	15844273642789869	image/png	0	
gift_27.png	67853	FkmliNhJcsHnM8x7Qyah0fuabHAR	15844273500992501	image/png	0	
gift_28.png	59099	Foq6BQ9-RtBEiGj4iY84qDYgMSmv	15844273611600400	image/png	0	
gift_3.png	66410	FkJjKWji144tC57u_pkXE6qXtecS	15844273493619661	image/png	0	
gift_4.png	63152	FiidTBWFAssTIPq5mtXKR7DDH0Cs	15844273501338969	image/png	0	
gift_5.png	75811	Fr3wK81-NK-tQC_HIND9WPQA0hTW	15844273494670156	image/png	0	
gift_6.png	55357	FrYOEbcysQmChGob4gz3SdsdkZ9g	15844273496364987	image/png	0	
gift_62.png	22066	Fk3YzwmTW_Et9xVG4eXB1bCEKTq_	15844273500881092	image/png	0	
gift_7.png	53671	FlvkQ8sjcTU18sK_9Q_On-4GgPpF	15844273494715993	image/png	0	
gift_74.png	18600	FnbDrE3iKFlE-TBurtF4KC67WpSa	15844273624793413	image/png	0	
gift_8.png	62382	FlO6uIE0oD8mbmn4tSkIJBTYP5Lq	15844273502625394	image/png	0	
gift_9.png	60841	FtZWLHh2cJeppYzPhHALLkdzqidQ	15844273493804062	image/png	0	
gift_gif_89.svga	5156021	luQaWKdDahYPB9wVx7KlczOFRyvP	15844273532959174	application/octet-stream	0	
gift_gif_91.svga	1804831	Fq8zF30M8DADwwA_h6M9RmilkX2d	15844273501496169	application/octet-stream	0	
gift_gif_92.svga	1745541	FuOnkoTTLptlZv0Co4kmyXHJs893	15844273498918887	application/octet-stream	0	
gift_gif_93.svga	1743849	FqVpQx7NskKTM0uoOefB3M1bG96e	15844273499840363	application/octet-stream	0	
gift_gif_95.svga	7128383	llbjdUQbZzNMa_bq1e0zg0f23I6C	15844273533727368	application/octet-stream	0	
giftfeiji.svga	343558	FmMHTB5Srztq5zgKlzJMPFu9tzkn	15844287907388809	application/octet-stream	0	
giftliuxingyu.svga	2835578	FqLP1C_t4CEmpR2y2qMCQQFJqorI	15844287917838980	application/octet-stream	0	
giftmeiguihua.svga	365976	Fq1qTWhgEQV4jqGr37tkDaRPblhG	15844287905824270	application/octet-stream	0	
giftmenghuanchengbao.svga	1870119	FkbHSc5FW3HnQDoAB9nupBJlEu7Z	15844287908255666	application/octet-stream	0	
giftpaoche.svga	609254	FttBAIDuDJlgkFSCntLq2iudu_W7	15844287906228538	application/octet-stream	0	
giftqiubite.svga	925332	FnIYI3s-OFyIyCxM7ObvWFewGeSq	15844287912245564	application/octet-stream	0	
giftqueqiaoxianghui.svga	2260831	Fgo7OGLGg86LxM8qmqz0CN6CCWtJ	15844287913720518	application/octet-stream	0	
giftxuanzhuanmuma.svga	213492	FuEreOSiJiWd6gNGRfpL_jQEpC6Y	15844287904798667	application/octet-stream	0	
giftyoulun.svga	963688	FnRzJPlzWPlzQZdAUcdOBEhQ95rl	15844287908260069	application/octet-stream	0	
level_1.png	1510	Fp53NQLQwaJJx-Td4SggTkeEIpR2	15844175003836233	image/png	0	
level_10.png	1849	FpJPvGKFRQzu3s0dqz9lI9ZZ3l4B	15844175007483504	image/png	0	
level_11.png	1354	FrbU6ADyzLEi9ft3rfnWrY6vF3Uw	15844175006098557	image/png	0	
level_12.png	1661	FkoSP0w9nhITrQFTrfJvW5of7oxO	15844175008787844	image/png	0	
level_13.png	1766	FlDiLubi0S08RGkxCYIDf0GWanVB	15844175004448481	image/png	0	
level_14.png	1544	FkKbywWoWAt_iGYUIN2tjylUcSge	15844175006546619	image/png	0	
level_15.png	1706	Fm956e-xIlNHxnIm__7KV3HvmYzz	15844175005324396	image/png	0	
level_16.png	1996	FofdQl0Fnpkv19ApE_45pOB21nEw	15844175012340524	image/png	0	
level_17.png	1665	Fi-gQ_mKFMNyVmxOw58-jZK-YkOo	15844175005441893	image/png	0	
level_18.png	1937	FgP6-_ZWfMX7RHOXkOtzI5dDaYHV	15844175008380467	image/png	0	
level_19.png	1942	Fu3wdWsyA0qootZZax42dvORqnY7	15844175002949176	image/png	0	
level_2.png	1838	FlkQDtkLo8WoRE6MzSYNaSOPk9Sr	15844175004341396	image/png	0	
level_20.png	2171	FmXsZ5ZPAelIRG0g3yvr1fuOPOZF	15844175009109289	image/png	0	
level_3.png	1931	FrH_nmHXnBYVC-zMykEI5pdUNgki	15844175002080970	image/png	0	
level_4.png	1670	Fs5pRS6UDx0zLOjztC5pLZoevbtz	15844175004597854	image/png	0	
level_5.png	1851	FoGGi6cUSxhzSHm7uXji8u3VLlmw	15844175002659048	image/png	0	
level_6.png	1866	FsX1lwtmJxqSpstVQzOCxMvR6_OY	15844175007274397	image/png	0	
level_7.png	1583	FpRn6FBYcCxoOJFfHMmA6DWi62Gh	15844175003151675	image/png	0	
level_8.png	1891	FlRrg7ebpaScMXV2FXciMWocfGlT	15844175005041045	image/png	0	
level_9.png	1901	FmX23ZCDvQ_Al1z_T5HU9cHjGWtX	15844175005804777	image/png	0	
level_anchor_1.png	1829	FvNzgvxXRyKy9eov7dW0SIQ6ZxPs	15844174747937818	image/png	0	
level_anchor_10.png	2246	FpRE93IUxZAVjhfGrOkEYtHdK7GV	15844174747914945	image/png	0	
level_anchor_2.png	2170	FqXPhNpalk1p7C8rjoym3WIUc9eL	15844174748068907	image/png	0	
level_anchor_3.png	2282	Flgs08xnps9SGseywZ6Hn4arwDpC	15844174745337431	image/png	0	
level_anchor_4.png	1987	FhKjJhX7i8lf7Elbim8FzB67p677	15844174748853953	image/png	0	
level_anchor_5.png	2200	FtQ4wwujQslGCborRlRK-NCrNCQP	15844174748761719	image/png	0	
level_anchor_6.png	2243	FnVE0wNHgxZMJYHqB_2knxTXAAZn	15844174748911641	image/png	0	
level_anchor_7.png	1928	Fi-z0YEvHdNu-gP00-J4Uh6X-R_g	15844174747805451	image/png	0	
level_anchor_8.png	2278	FhX4gNiLfaSf3W3i2rCN6jVlTRwo	15844174772122650	image/png	0	
level_anchor_9.png	2241	Fpih_puadpiT97yzynIhqeOkV3i-	15844174748864406	image/png	0	
level_anchor_bg_1.png	4160	Fn40xTkIGNOPDs10ldbIghTjTuTO	15844174748962467	image/png	0	
level_anchor_bg_10.png	3468	Fi76pxnlFqC0SirSBf0xiClw-7Ww	15844245330526636	image/png	0	
level_anchor_bg_2.png	4160	Fn40xTkIGNOPDs10ldbIghTjTuTO	15844245331874677	image/png	0	
level_anchor_bg_3.png	4160	Fn40xTkIGNOPDs10ldbIghTjTuTO	15844245331494766	image/png	0	
level_anchor_bg_4.png	4160	Fn40xTkIGNOPDs10ldbIghTjTuTO	15844245331387050	image/png	0	
level_anchor_bg_5.png	4160	Fn40xTkIGNOPDs10ldbIghTjTuTO	15844245332227498	image/png	0	
level_anchor_bg_6.png	3468	Fi76pxnlFqC0SirSBf0xiClw-7Ww	15844174749117960	image/png	0	
level_anchor_bg_7.png	3468	Fi76pxnlFqC0SirSBf0xiClw-7Ww	15844245330367636	image/png	0	
level_anchor_bg_8.png	3468	Fi76pxnlFqC0SirSBf0xiClw-7Ww	15844245332609313	image/png	0	
level_anchor_bg_9.png	3468	Fi76pxnlFqC0SirSBf0xiClw-7Ww	15844245330874707	image/png	0	
level_anchor_mark_1.png	1800	Frh_WzJYIFOjGlutfGwdOLx723ac	15844174748139961	image/png	0	
level_anchor_mark_10.png	1725	FjmFjKAjJe1hLziXlcfE0p82Fg_-	15844245332248946	image/png	0	
level_anchor_mark_2.png	1800	Frh_WzJYIFOjGlutfGwdOLx723ac	15844245332221013	image/png	0	
level_anchor_mark_3.png	1800	Frh_WzJYIFOjGlutfGwdOLx723ac	15844245332203291	image/png	0	
level_anchor_mark_4.png	1800	Frh_WzJYIFOjGlutfGwdOLx723ac	15844245330555627	image/png	0	
level_anchor_mark_5.png	1800	Frh_WzJYIFOjGlutfGwdOLx723ac	15844245331354060	image/png	0	
level_anchor_mark_6.png	1725	FjmFjKAjJe1hLziXlcfE0p82Fg_-	15844174747874440	image/png	0	
level_anchor_mark_7.png	1725	FjmFjKAjJe1hLziXlcfE0p82Fg_-	15844245330958054	image/png	0	
level_anchor_mark_8.png	1725	FjmFjKAjJe1hLziXlcfE0p82Fg_-	15844245330683073	image/png	0	
level_anchor_mark_9.png	1725	FjmFjKAjJe1hLziXlcfE0p82Fg_-	15844245331316120	image/png	0	
level_bg_1.png	3427	FlZqjHUQBW2MX6TpG4996s9ePEFI	15844246971542413	image/png	0	
level_bg_10.png	2952	FuW9htXZ0qfi3Xj0LFkFerBagugf	15844175013492744	image/png	0	
level_bg_11.png	3444	FjrMGA1ZHscGvqrp3aQl-0L-lAGE	15844246975077760	image/png	0	
level_bg_12.png	3444	FjrMGA1ZHscGvqrp3aQl-0L-lAGE	15844246973976064	image/png	0	
level_bg_13.png	3444	FjrMGA1ZHscGvqrp3aQl-0L-lAGE	15844246974198865	image/png	0	
level_bg_14 (1).png	3444	FjrMGA1ZHscGvqrp3aQl-0L-lAGE	15844246974092153	image/png	0	
level_bg_14.png	3444	FjrMGA1ZHscGvqrp3aQl-0L-lAGE	15844246975272267	image/png	0	
level_bg_15.png	3444	FjrMGA1ZHscGvqrp3aQl-0L-lAGE	15844175006811829	image/png	0	
level_bg_16.png	3390	FpOJb8okTJgrOLZYoj1kF9s5h2Wz	15844175014671578	image/png	0	
level_bg_17.png	3390	FpOJb8okTJgrOLZYoj1kF9s5h2Wz	15844246976881708	image/png	0	
level_bg_18.png	3390	FpOJb8okTJgrOLZYoj1kF9s5h2Wz	15844246971730413	image/png	0	
level_bg_19.png	3390	FpOJb8okTJgrOLZYoj1kF9s5h2Wz	15844246973495692	image/png	0	
level_bg_2.png	3427	FlZqjHUQBW2MX6TpG4996s9ePEFI	15844246970618020	image/png	0	
level_bg_20.png	3390	FpOJb8okTJgrOLZYoj1kF9s5h2Wz	15844246971748268	image/png	0	
level_bg_3.png	3427	FlZqjHUQBW2MX6TpG4996s9ePEFI	15844246971264752	image/png	0	
level_bg_4.png	3427	FlZqjHUQBW2MX6TpG4996s9ePEFI	15844246976921776	image/png	0	
level_bg_5.png	3427	FlZqjHUQBW2MX6TpG4996s9ePEFI	15844175003558675	image/png	0	
level_bg_6.png	2952	FuW9htXZ0qfi3Xj0LFkFerBagugf	15844246974793654	image/png	0	
level_bg_7.png	2952	FuW9htXZ0qfi3Xj0LFkFerBagugf	15844246974769932	image/png	0	
level_bg_8.png	2952	FuW9htXZ0qfi3Xj0LFkFerBagugf	15844246972528447	image/png	0	
level_bg_9.png	2952	FuW9htXZ0qfi3Xj0LFkFerBagugf	15844246971895164	image/png	0	
level_mark_1.png	1375	FqV01v2ze9W0tcJNVYo6rjeMIXId	15844175004445184	image/png	0	
level_mark_10.png	1234	Fl0s9FL1BigR4F2SGgVRSXhRtohx	15844247300985121	image/png	0	
level_mark_11.png	1171	FuV_0u9d7LQuo4E1x7kcYZPE4Yup	15844175006325122	image/png	0	
level_mark_12.png	1171	FuV_0u9d7LQuo4E1x7kcYZPE4Yup	15844246980837599	image/png	0	
level_mark_13.png	1171	FuV_0u9d7LQuo4E1x7kcYZPE4Yup	15844246973462483	image/png	0	
level_mark_14.png	1171	FuV_0u9d7LQuo4E1x7kcYZPE4Yup	15844246972214512	image/png	0	
level_mark_15.png	1171	FuV_0u9d7LQuo4E1x7kcYZPE4Yup	15844246970758765	image/png	0	
level_mark_16.png	1210	FsuoHWssB6S-Hx0CAGpm2UgToybm	15844175014266344	image/png	0	
level_mark_17.png	1210	FsuoHWssB6S-Hx0CAGpm2UgToybm	15844246975662373	image/png	0	
level_mark_18.png	1210	FsuoHWssB6S-Hx0CAGpm2UgToybm	15844246977431267	image/png	0	
level_mark_19.png	1210	FsuoHWssB6S-Hx0CAGpm2UgToybm	15844246973128779	image/png	0	
level_mark_2.png	1375	FqV01v2ze9W0tcJNVYo6rjeMIXId	15844246973028427	image/png	0	
level_mark_20.png	1210	FsuoHWssB6S-Hx0CAGpm2UgToybm	15844246976470373	image/png	0	
level_mark_3.png	1375	FqV01v2ze9W0tcJNVYo6rjeMIXId	15844246972624385	image/png	0	
level_mark_4.png	1375	FqV01v2ze9W0tcJNVYo6rjeMIXId	15844246976050714	image/png	0	
level_mark_5.png	1375	FqV01v2ze9W0tcJNVYo6rjeMIXId	15844246977112562	image/png	0	
level_mark_6.png	1234	Fl0s9FL1BigR4F2SGgVRSXhRtohx	15844175013891540	image/png	0	
level_mark_7.png	1234	Fl0s9FL1BigR4F2SGgVRSXhRtohx	15844246975860412	image/png	0	
level_mark_8.png	1234	Fl0s9FL1BigR4F2SGgVRSXhRtohx	15844246977409336	image/png	0	
level_mark_9.png	1234	Fl0s9FL1BigR4F2SGgVRSXhRtohx	15844246970622805	image/png	0	
liveclass_1.png	4315	FtRxjKZmS5xsL48eH9TvbJ8dG6zz	15844252703605350	image/png	0	
liveclass_10.png	4265	Fqnyj3PCI_1_n303tkuxW1v_P6po	15844252703451554	image/png	0	
liveclass_11.png	3745	FqbgYDIavRQ5n6JvizUzyrxv7fxI	15844252704022792	image/png	0	
liveclass_12.png	4370	Fn8K9bkw792TUiNEvPp8NrArYcIL	15844252702382882	image/png	0	
liveclass_2.png	4205	FrVWqfyYVZTQL7WO7gdiQE-MEFlO	15844252702692037	image/png	0	
liveclass_3.png	3623	FvZ-faNB37JEHSwwRt04OJKrLH3P	15844252702238245	image/png	0	
liveclass_4.png	4234	Fo5VnJ7M2EbycKaJ7vosdTfKMAa0	15844252703314877	image/png	0	
liveclass_5.png	4501	FkLdmUn_DZ0CH2AMT-I0CYoSmUN_	15844252704329277	image/png	0	
liveclass_6.png	4104	FrRqyCMrllWEZKCqX9vCnCVC1GHq	15844252703070514	image/png	0	
liveclass_7.png	4058	Fso28E4aIA3PDblniGP3bupEE0dV	15844252704217467	image/png	0	
liveclass_8.png	3891	FiY0dKFwvL3BJtNMkQisDBNYlISx	15844252704261376	image/png	0	
liveclass_9.png	3418	Fu8jysZudVZKWc1Ijuf7CTOP5nJF	15844252702865807	image/png	0	
music_class_16.png	2445	FpnecsfWzXFrEhM1Sqxk2h2_VJnK	15844377263479547	image/png	0	
music_class_17.png	3370	FqrWDtiPP4fz8XY3h4g5PB-1R-at	15844377263475598	image/png	0	
music_class_18.png	1299	FvjGxgbLSgXlzLvcapmZH615vhb8	15844377263237337	image/png	0	
music_class_19.png	3275	Fj4Ae7DkSqGiIRC57v2epheBV-TK	15844377263704010	image/png	0	
user/20200317/0ace28f143380c8604020663f03c46a7.jpg	14211	Fh1dPCXIBxHlHpVI7sl6hf9yW7CF	15844345678739461	image/jpeg	0	
user/20200317/13d26a356086ce2a6e7e2afd7b6a3f9a.jpg	108674	FmeCeF-Uc4TYr28e4Vxo6F4-EuMY	15844343764251456	image/jpeg	0	
user/20200317/196238549942f3504d7959fedf920c4e.jpg	14098	FtZmz2ME4Kw0M8yJeyfoZWnlL8Tg	15844345318872632	image/jpeg	0	
user/20200317/1d2956f50112c5ba74ba5208d286ffac.jpg	42401	FjoPKdinGdDUa1OIrL8P7s71Wb2b	15844349040539462	image/jpeg	0	
user/20200317/1dce2ac10267ace6f2f64e1ef42abc88.jpg	32590	FnpSsyWtFroq1r-xCNBTDmZr90Qw	15844346301850687	image/jpeg	0	
user/20200317/2e4fb91fa9d37c0733e1f80316d11126.jpg	106104	Fl27gsWXJVavX2xO_nCl8edyRmPe	15844344638421202	image/jpeg	0	
user/20200317/3262fef9d058053e01015da1ea5b772b.jpeg	101008	FolUFuf0U7DiPF4-XOIk0xjlNiPs	15844344318596194	image/jpeg	0	
user/20200317/3d63394b3f518b0367f536aacef9aa17.jpg	22640	FlA_MvQn5In4no_c2dYrYZuJuOFM	15844347656520798	image/jpeg	0	
user/20200317/3e23df17d731a249b50783a1179a43a0.jpg	22640	FlA_MvQn5In4no_c2dYrYZuJuOFM	15844347615013071	image/jpeg	0	
user/20200317/69411f81f5145e52098e347b462c44e5.jpg	13792	Fou8TYg7Pq5k33_hbI5LeRjYu18n	15844346624579987	image/jpeg	0	
user/20200317/6b0b7265e6f6c33bd228b186f03f9cdd.jpg	33946	FhWZ4RwMYqSFmTm5yZZpGYfD1ssJ	15844302755835085	image/jpeg	0	
user/20200317/771ed6bdcc80ddbac17c766aa53f57ba.jpg	33946	FhWZ4RwMYqSFmTm5yZZpGYfD1ssJ	15844302838795470	image/jpeg	0	
user/20200317/7b282a32f406ffac269087823bf7714f.jpg	32590	FnpSsyWtFroq1r-xCNBTDmZr90Qw	15844346265383394	image/jpeg	0	
user/20200317/7e1e12d49883d64ea3f70407995d390d.jpg	10936	FifUJOjS1Xa9CFt4YjxK4uugxJyJ	15844347005340541	image/jpeg	0	
user/20200317/8c67ed0d460a3bfc31fa0ca0df240e4b.jpg	108674	FmeCeF-Uc4TYr28e4Vxo6F4-EuMY	15844343504182928	image/jpeg	0	
user/20200317/8cac7cdf3d8ffe89d12e1e885453cebc.jpg	108674	FmeCeF-Uc4TYr28e4Vxo6F4-EuMY	15844343847160406	image/jpeg	0	
user/20200317/95f43e260dd3748d935578a9964ba534.jpg	108674	FmeCeF-Uc4TYr28e4Vxo6F4-EuMY	15844343680580906	image/jpeg	0	
user/20200317/9cfd9efbabdb31981dc429b4c3b8a8ac.jpeg	101008	FolUFuf0U7DiPF4-XOIk0xjlNiPs	15844344361186928	image/jpeg	0	
user/20200317/a218b8c0e0301e0b8b4d6750561218dc.jpg	106104	Fl27gsWXJVavX2xO_nCl8edyRmPe	15844344681444873	image/jpeg	0	
user/20200317/a953de3533240a2e61c01c06159661e8.jpg	13792	Fou8TYg7Pq5k33_hbI5LeRjYu18n	15844346588299987	image/jpeg	0	
user/20200317/b85aed611afdf70c4b6d68fd5072dcca.jpg	14211	Fh1dPCXIBxHlHpVI7sl6hf9yW7CF	15844345760135018	image/jpeg	0	
user/20200317/d378687d5560d92bf900849868721168.jpg	113010	FghqiRCu-3tiCw1BWzedHnoNg2rU	15844348283441658	image/jpeg	0	
user/20200317/d4bbc8a99d05fd5d13bd001a9bcd35bb.jpg	113010	FghqiRCu-3tiCw1BWzedHnoNg2rU	15844348229982149	image/jpeg	0	
user/20200317/e3dc7c645b3777b372446c25ef42e95f.jpg	42401	FjoPKdinGdDUa1OIrL8P7s71Wb2b	15844349001223067	image/jpeg	0	
user/20200317/f7531a996917934cb3bc99a48b092b7b.jpg	14098	FtZmz2ME4Kw0M8yJeyfoZWnlL8Tg	15844345357844944	image/jpeg	0	
user/20200317/ff66c46be320dbb3ac14197c195b0763.jpg	10936	FifUJOjS1Xa9CFt4YjxK4uugxJyJ	15844346968813952	image/jpeg	0	
